idx,SS,BW,sgi,mcs,attemp,success,tx_bytes,airtime,esttime,rssi_sum,rssi_count,LOSS,RSSI,TPT,CASE
62,1,40,0,2,13072,13059,18808214,3820024,4006185,-65269,989,0.0,-66.0,37.6,./0702/0702_8m
63,1,40,0,3,17426,17398,25059380,3814556,4008800,-71709,1088,0.0,-65.9,50.0,./0702/0702_8m
64,1,40,0,4,19110,12418,17869396,2805620,3026635,-67068,1001,0.35,-67.0,47.2,./0702/0702_8m
65,1,40,0,5,14384,547,775062,1570424,1610617,-19267,293,0.96,-65.8,3.8,./0702/0702_8m
70,2,40,0,0,8616,8597,12381634,3801532,4011055,-64921,955,0.0,-68.0,24.7,./0702/0702_8m
71,2,40,0,1,17364,16708,24065320,3805572,4010951,-72939,1061,0.040000000000000036,-68.7,48.0,./0702/0702_8m
72,2,40,0,2,22632,17215,24792174,3337252,3615315,-92627,1344,0.24,-68.9,54.9,./0702/0702_8m
73,2,40,0,3,10885,0,0,1189304,1197810,-12561,186,1.0,-67.5,0.0,./0702/0702_8m
80,3,40,0,0,10916,10527,15160446,3198392,3378353,-56991,818,0.040000000000000036,-69.7,35.9,./0702/0702_8m
81,3,40,0,1,7831,213,289270,1143472,12886087347,-13756,197,0.97,-69.8,0.0,./0702/0702_8m
82,3,40,0,2,11006,0,0,1073460,1115327,-13712,198,1.0,-69.3,0.0,./0702/0702_8m
