idx,SS,BW,sgi,mcs,attemp,success,tx_bytes,airtime,esttime,rssi_sum,rssi_count,LOSS,RSSI,TPT,CASE
63,1,40,0,3,17422,17422,25093956,3813208,4008681,-63149,1088,0.0,-58.0,50.1,0623/0623_3m
64,1,40,0,4,25498,25498,36728780,3739444,4011833,-92668,1590,0.0,-58.3,73.2,0623/0623_3m
65,1,40,0,5,33012,32984,47513384,3650872,4009916,-118824,2066,0.0,-57.5,94.8,0623/0623_3m
66,1,40,0,6,36624,36490,52564588,3610612,4011979,-133865,2304,0.0,-58.1,104.8,0623/0623_3m
71,2,40,0,1,17369,17369,25016242,3805764,4010396,-63464,1085,0.0,-58.5,49.9,0623/0623_3m
72,2,40,0,2,25276,25276,36408952,3715212,4010828,-94082,1605,0.0,-58.6,72.6,0623/0623_3m
73,2,40,0,3,32823,32806,47257172,3639572,4010164,-122497,2085,0.0,-58.8,94.3,0623/0623_3m
74,2,40,0,4,46603,45898,66118380,3491076,4013432,-177907,3035,0.020000000000000018,-58.6,131.8,0623/0623_3m
80,3,40,0,0,12916,12805,18442058,3781960,4007796,-57467,970,0.010000000000000009,-59.2,36.8,0623/0623_3m
81,3,40,0,1,25233,25217,36322894,3714452,4015617,-90986,1579,0.0,-57.6,72.4,0623/0623_3m
82,3,40,0,2,26619,17898,25779940,2633672,2951410,-82063,1470,0.32999999999999996,-55.8,69.9,0623/0623_3m
83,3,40,0,3,23967,12023,17312094,1798276,2070687,-73196,1243,0.5,-58.9,66.9,0623/0623_3m
