idx,SS,BW,sgi,mcs,attemp,success,tx_bytes,airtime,esttime,rssi_sum,rssi_count,LOSS,RSSI,TPT,CASE
63,1,40,0,3,17428,17428,25102600,3814496,4007302,-53760,1088,0.0,-49.4,50.1,0623/0623_2m
64,1,40,0,4,23146,22780,32813048,3393656,3652157,-75063,1441,0.020000000000000018,-52.1,71.9,0623/0623_2m
65,1,40,0,5,27124,26662,38405716,3001236,3320978,-101056,1803,0.020000000000000018,-56.0,92.5,0623/0623_2m
66,1,40,0,6,30454,29316,42228000,3005056,3376165,-119599,2099,0.040000000000000036,-57.0,100.1,0623/0623_2m
71,2,40,0,1,14882,14638,21083140,3260016,3450042,-51583,920,0.020000000000000018,-56.1,48.9,0623/0623_2m
72,2,40,0,2,22566,22240,32035088,3317268,3598441,-79173,1465,0.010000000000000009,-54.0,71.2,0623/0623_2m
73,2,40,0,3,32897,32897,47388386,3647236,4009322,-115654,2102,0.0,-55.0,94.6,0623/0623_2m
74,2,40,0,4,46847,46355,66776878,3506708,4014023,-175665,2971,0.010000000000000009,-59.1,133.1,0623/0623_2m
80,3,40,0,0,12927,12899,18577934,3785448,4016383,-57065,977,0.0,-58.4,37.0,0623/0623_2m
81,3,40,0,1,25210,25156,36236072,3710952,4009771,-91516,1576,0.0,-58.1,72.3,0623/0623_2m
82,3,40,0,2,33243,23701,34139538,3287604,3667624,-111552,1915,0.29000000000000004,-58.3,74.5,0623/0623_2m
83,3,40,0,3,35358,23472,33811664,2653724,3068876,-122301,2107,0.33999999999999997,-58.0,88.1,0623/0623_2m
