idx,SS,BW,sgi,mcs,attemp,success,tx_bytes,airtime,esttime,rssi_sum,rssi_count,LOSS,RSSI,TPT,CASE
63,1,40,0,3,17422,17422,25093956,3813208,4008939,-60406,1088,0.0,-55.5,50.1,0623/0623_4m
64,1,40,0,4,25402,25378,36555900,3726408,4012964,-91859,1604,0.0,-57.3,72.9,0623/0623_4m
65,1,40,0,5,27292,25416,36610192,3020476,3336190,-100050,1750,0.06999999999999995,-57.2,87.8,0623/0623_4m
66,1,40,0,6,25542,20904,30109224,2519008,2824289,-83564,1564,0.18000000000000005,-53.4,85.3,0623/0623_4m
71,2,40,0,1,14895,14609,21040002,3262632,3445145,-53496,918,0.020000000000000018,-58.3,48.9,0623/0623_4m
72,2,40,0,2,21035,20572,29632056,3090372,3355170,-77654,1338,0.020000000000000018,-58.0,70.7,0623/0623_4m
73,2,40,0,3,32953,32759,47188126,3653452,4015551,-121742,2068,0.010000000000000009,-58.9,94.0,0623/0623_4m
74,2,40,0,4,26126,14278,20559148,1958428,2261254,-81370,1400,0.44999999999999996,-58.1,72.7,0623/0623_4m
80,3,40,0,0,12665,10495,15112758,3724524,3948419,-55872,968,0.17000000000000004,-57.7,30.6,0623/0623_4m
81,3,40,0,1,25126,23871,34384022,3700832,4010539,-88798,1568,0.050000000000000044,-56.6,68.6,0623/0623_4m
82,3,40,0,2,11472,323,461142,1119728,1173538,-13749,270,0.97,-50.9,3.1,0623/0623_4m
83,3,40,0,3,11598,159,219622,856944,897421,-12447,244,0.99,-51.0,2.0,0623/0623_4m
