idx,SS,BW,sgi,mcs,attemp,success,tx_bytes,airtime,esttime,rssi_sum,rssi_count,LOSS,RSSI,TPT,CASE
63,1,40,0,3,17440,17422,25093956,3817140,4009146,-58334,1088,0.0,-53.6,50.1,0623/0623_9m
64,1,40,0,4,25420,25408,36599120,3728412,4009167,-89943,1585,0.0,-56.7,73.0,0623/0623_9m
65,1,40,0,5,33006,32932,47438696,3650148,4011119,-119431,2076,0.0,-57.5,94.6,0623/0623_9m
66,1,40,0,6,36461,35482,51112396,3595336,4012616,-135083,2379,0.030000000000000027,-56.8,101.9,0623/0623_9m
71,2,40,0,1,17369,17369,25016242,3805792,4009399,-61854,1085,0.0,-57.0,49.9,0623/0623_9m
72,2,40,0,2,25306,25306,36452172,3718872,4008696,-91738,1582,0.0,-58.0,72.7,0623/0623_9m
73,2,40,0,3,32966,32872,47352256,3654064,4010945,-117597,2061,0.0,-57.1,94.4,0623/0623_9m
74,2,40,0,4,21511,9921,14284178,1610404,1856496,-60376,1041,0.05,-58.0,125.6,0623/0623_9m
80,3,40,0,0,12889,11483,16536502,3786076,4006014,-56777,989,0.10999999999999999,-57.4,33.0,0623/0623_9m
81,3,40,0,1,25181,23833,34330410,3710680,4008772,-90146,1561,0.050000000000000044,-57.7,68.5,0623/0623_9m
82,3,40,0,2,11231,405,581770,1104192,1151600,-14685,258,0.96,-56.9,4.0,0623/0623_9m
83,3,40,0,3,12695,31,43326,935372,954184,-12631,224,1.0,-56.4,0.4,0623/0623_9m
