idx,SS,BW,sgi,mcs,attemp,success,tx_bytes,airtime,esttime,rssi_sum,rssi_count,LOSS,RSSI,TPT,CASE
62,1,40,0,2,13028,12333,17762290,3807140,4010186,-67116,953,0.050000000000000044,-70.4,35.4,./0704_1/0704_3m_7_1
63,1,40,0,3,17401,16631,23953030,3810500,4009652,-74943,1067,0.040000000000000036,-70.2,47.8,./0704_1/0704_3m_7_1
64,1,40,0,4,23855,20790,29946348,3505224,3778779,-101168,1440,0.13,-70.3,63.4,./0704_1/0704_3m_7_1
65,1,40,0,5,14377,2282,3282212,1576516,1646879,-27707,392,0.84,-70.7,15.9,./0704_1/0704_3m_7_1
70,2,40,0,0,8085,7399,10653814,3568276,3766521,-59155,843,0.07999999999999996,-70.2,22.6,./0704_1/0704_3m_7_1
71,2,40,0,1,17388,17218,24800060,3810552,4010209,-76371,1080,0.010000000000000009,-70.7,49.5,./0704_1/0704_3m_7_1
72,2,40,0,2,23084,19367,27896166,3395632,3705254,-91511,1311,0.16000000000000003,-69.8,60.2,./0704_1/0704_3m_7_1
73,2,40,0,3,11076,225,308486,1215520,1254274,-16189,228,0.98,-71.0,2.0,./0704_1/0704_3m_7_1
80,3,40,0,0,12802,11987,17264046,3749324,3987790,-64557,921,0.06000000000000005,-70.1,34.6,./0704_1/0704_3m_7_1
81,3,40,0,1,23096,16289,23457802,3414512,3724120,-96286,1364,0.29000000000000004,-70.6,50.4,./0704_1/0704_3m_7_1
82,3,40,0,2,13760,0,0,1334352,1398198,-16278,231,1.0,-70.5,0.0,./0704_1/0704_3m_7_1
