idx,SS,BW,sgi,mcs,attemp,success,tx_bytes,airtime,esttime,rssi_sum,rssi_count,RSSI,TPT,CASE
0,1,20,0,0,1993,1993,2864890,3694920,4008496,-111264,1656,-67.2,5.7,0417_findC
1,1,20,0,1,4072,4072,5867088,3816192,4012338,-67924,1017,-66.8,11.7,0417_findC
2,1,20,0,2,6190,6190,8912388,3811024,4012396,-69590,1031,-67.5,17.8,0417_findC
3,1,20,0,3,8362,8362,12041516,3832276,4016148,-67412,995,-67.8,24.1,0417_findC
4,1,20,0,4,12649,12636,18199152,3837268,4014772,-61121,972,-62.9,36.4,0417_findC
5,1,20,0,5,16822,16822,24229556,3820512,4013379,-71316,1049,-68.0,48.5,0417_findC
6,1,20,0,6,18797,18761,27021650,3800628,4004860,-78876,1169,-67.5,54.0,0417_findC
7,1,20,0,7,20735,20724,29850584,3778032,4009351,-78762,1292,-61.0,59.7,0417_findC
10,2,20,0,0,4047,4043,5820750,3794224,4011472,-61105,1010,-60.5,11.6,0417_findC
11,2,20,0,1,8326,8326,11989652,3819764,4006668,-59460,991,-60.0,24.0,0417_findC
12,2,20,0,2,12588,12575,18111158,3822580,4008626,-58503,967,-60.5,36.2,0417_findC
13,2,20,0,3,16810,16810,24212268,3822000,4008879,-63245,1049,-60.3,48.4,0417_findC
14,2,20,0,4,24496,24496,35285232,3735356,4008245,-93147,1527,-61.0,70.6,0417_findC
15,2,20,0,5,31840,31840,45865488,3664448,4013816,-124109,2026,-61.3,91.7,0417_findC
16,2,20,0,6,35338,35314,50870364,3624384,4010838,-135592,2224,-61.0,101.7,0417_findC
17,2,20,0,7,38728,38716,55771512,3584268,4010381,-147619,2440,-60.5,111.5,0417_findC
20,3,20,0,0,5165,5053,7274690,3184564,3372508,-53369,849,-62.9,14.5,0417_findC
21,3,20,0,1,10547,10287,14814686,3205720,3372224,-50137,800,-62.7,29.6,0417_findC
22,3,20,0,2,15993,15735,22663438,3241168,3433393,-62275,984,-63.3,45.3,0417_findC
23,3,20,0,3,20988,20465,29478018,3204900,3453955,-82707,1294,-63.9,59.0,0417_findC
24,3,20,0,4,35240,35240,50763528,3622528,4012367,-134216,2204,-60.9,101.5,0417_findC
25,3,20,0,5,44604,40871,58874790,3475532,4019712,-179860,2884,-62.4,117.7,0417_findC
26,3,20,0,6,11135,731,1035246,765328,889331,-23656,345,-68.6,2.1,0417_findC
27,3,20,0,7,13552,1,106,832304,875715,-15964,233,-68.5,0.0,0417_findC
60,1,40,0,0,4200,4200,6049768,3790772,4010995,-71645,1049,-68.3,12.1,0417_findC
61,1,40,0,1,8686,8686,12508292,3828144,4014643,-58865,965,-61.0,25.0,0417_findC
62,1,40,0,2,13073,13059,18808214,3820196,4016465,-60718,989,-61.4,37.6,0417_findC
63,1,40,0,3,17440,17440,25119888,3817140,4009219,-72208,1089,-66.3,50.2,0417_findC
64,1,40,0,4,25432,25432,36633696,3729988,4012534,-108642,1586,-68.5,73.3,0417_findC
65,1,40,0,5,33004,33004,47540952,3649748,4013202,-141340,2071,-68.2,95.1,0417_findC
66,1,40,0,6,36604,36604,52728824,3608872,4012377,-155188,2318,-66.9,105.5,0417_findC
67,1,40,0,7,40108,40096,57759632,3570292,4014067,-177555,2583,-68.7,115.5,0417_findC
70,2,40,0,0,8623,8605,12391938,3804300,4012713,-65319,956,-68.3,24.8,0417_findC
71,2,40,0,1,17358,17332,24964296,3803368,4008383,-72231,1083,-66.7,49.9,0417_findC
72,2,40,0,2,25277,25253,36375930,3715120,4013533,-103435,1588,-65.1,72.8,0417_findC
73,2,40,0,3,32908,32872,47352256,3649240,4016721,-129212,2103,-61.4,94.7,0417_findC
74,2,40,0,4,45713,45713,65851970,3433920,4011539,-203715,3274,-62.2,131.7,0417_findC
75,2,40,0,5,57952,57922,83439484,3302080,4018736,-249861,4053,-61.6,166.9,0417_findC
76,2,40,0,6,63235,62813,90487370,3224000,4023287,-299253,4441,-67.4,181.0,0417_findC
77,2,40,0,7,12624,67,85078,565640,671885,-16610,253,-65.7,0.2,0417_findC
80,3,40,0,0,10855,10646,15331772,3176936,3365181,-54454,811,-67.1,30.7,0417_findC
81,3,40,0,1,21493,21190,30522388,3163016,3423728,-91640,1329,-69.0,61.0,0417_findC
82,3,40,0,2,33934,33742,48605636,3362488,3781158,-148070,2144,-69.1,97.2,0417_findC
83,3,40,0,3,46593,46581,67102242,3499168,4018491,-203005,2939,-69.1,134.2,0417_findC
84,3,40,0,4,61547,61505,88602978,3165332,4018895,-313886,4606,-68.1,177.2,0417_findC
85,3,40,0,5,18852,1,106,712032,797147,-22109,325,-68.0,0.0,0417_findC
86,3,40,0,6,18452,0,0,622328,738966,-21138,309,-68.4,0.0,0417_findC
