idx,SS,BW,sgi,mcs,attemp,success,tx_bytes,airtime,esttime,rssi_sum,rssi_count,LOSS,RSSI,TPT,CASE
63,1,40,0,3,17436,17422,25093956,3816316,4010299,-77380,1088,0.0,-71.1,50.1,./0629/0629_10m
64,1,40,0,4,25485,25468,36685560,3737476,4009652,-109251,1589,0.0,-68.8,73.2,./0629/0629_10m
65,1,40,0,5,16015,3736,5356088,1782860,1969218,-47198,670,0.77,-70.4,21.8,./0629/0629_10m
66,1,40,0,6,15877,1338,1918620,1548888,1622497,-26602,378,0.92,-70.4,9.5,./0629/0629_10m
71,2,40,0,1,17363,17362,25007516,3804696,4006936,-75215,1085,0.0,-69.3,49.9,./0629/0629_10m
72,2,40,0,2,25260,25114,36175564,3711668,4007413,-112288,1582,0.010000000000000009,-71.0,72.2,./0629/0629_10m
73,2,40,0,3,10577,0,0,1156064,1159960,-13146,186,1.0,-70.7,0.0,./0629/0629_10m
74,2,40,0,4,12103,0,0,889644,901289,-15192,216,1.0,-70.3,0.0,./0629/0629_10m
80,3,40,0,0,10704,10513,15140050,3134952,3309271,-55589,802,0.020000000000000018,-69.3,36.6,./0629/0629_10m
81,3,40,0,1,18606,10639,15312054,2761440,3030918,-74509,1125,0.43000000000000005,-66.2,40.4,./0629/0629_10m
82,3,40,0,2,11274,0,0,1100212,17181007782,-13679,211,1.0,-64.8,0.0,./0629/0629_10m
83,3,40,0,3,11141,0,0,821268,853121,-12725,196,1.0,-64.9,0.0,./0629/0629_10m
