idx,SS,BW,sgi,mcs,attemp,success,tx_bytes,airtime,esttime,rssi_sum,rssi_count,LOSS,RSSI,TPT,CASE
63,1,40,0,3,17422,17404,25068024,3813208,4008176,-62641,1087,0.0,-57.6,50.0,0624/0624_18m
64,1,40,0,4,25414,25372,36547256,3728588,4009651,-91945,1604,0.0,-57.3,72.9,0624/0624_18m
65,1,40,0,5,33065,32794,47239884,3657004,4015161,-114048,2055,0.010000000000000009,-55.5,94.1,0624/0624_18m
66,1,40,0,6,26753,19310,27795348,2647120,2962745,-87390,1550,0.28,-56.4,75.1,0624/0624_18m
71,2,40,0,1,17368,17368,25016160,3805752,4007716,-61712,1085,0.0,-56.9,49.9,0624/0624_18m
72,2,40,0,2,20994,20452,29459176,3083608,3335695,-75084,1293,0.030000000000000027,-58.1,70.7,0624/0624_18m
73,2,40,0,3,27241,26428,38068600,3020164,3347877,-104089,1761,0.030000000000000027,-59.1,91.0,0624/0624_18m
74,2,40,0,4,24208,13085,18834426,1819868,2114840,-73757,1316,0.45999999999999996,-56.0,71.2,0624/0624_18m
80,3,40,0,0,10862,10328,14874320,3183516,3367415,-47538,817,0.050000000000000044,-58.2,35.3,0624/0624_18m
81,3,40,0,1,24828,24635,35484126,3655460,3952789,-87256,1559,0.010000000000000009,-56.0,71.8,0624/0624_18m
82,3,40,0,2,10832,5,6322,1058020,1063212,-10206,177,1.0,-57.7,0.0,0624/0624_18m
83,3,40,0,3,12380,230,319844,914760,965207,-15715,275,0.98,-57.1,2.7,0624/0624_18m
