idx,SS,BW,sgi,mcs,attemp,success,tx_bytes,airtime,esttime,rssi_sum,rssi_count,LOSS,RSSI,TPT,CASE
63,1,40,0,3,17424,17404,25068024,3813568,4009124,-65655,1087,0.0,-60.4,50.0,0624/0624_22m
64,1,40,0,4,25428,25398,36584940,3730316,4009608,-94849,1604,0.0,-59.1,73.0,0624/0624_22m
65,1,40,0,5,16406,4665,6699882,1817428,1968920,-34590,655,0.72,-52.8,27.2,0624/0624_22m
66,1,40,0,6,10378,0,0,1011664,1016585,-9183,174,1.0,-52.8,0.0,0624/0624_22m
71,2,40,0,1,16218,16079,23157806,3553280,3750079,-54784,1007,0.010000000000000009,-54.4,49.4,0624/0624_22m
72,2,40,0,2,20895,20548,29597480,3070312,3319241,-74994,1306,0.020000000000000018,-57.4,71.3,0624/0624_22m
73,2,40,0,3,24636,18248,26274792,2742372,3040205,-83805,1458,0.26,-57.5,69.1,0624/0624_22m
74,2,40,0,4,11667,0,0,856464,913064,-12042,216,1.0,-55.8,0.0,0624/0624_22m
80,3,40,0,0,11216,10972,15799428,3283892,3468050,-48424,840,0.020000000000000018,-57.6,36.4,0624/0624_22m
81,3,40,0,1,24872,21391,30812302,3669308,3979213,-92226,1538,0.14,-60.0,61.9,0624/0624_22m
82,3,40,0,2,11123,0,0,1081024,1087645,-11544,192,1.0,-60.1,0.0,0624/0624_22m
83,3,40,0,3,12019,0,0,888160,895169,-12318,207,1.0,-59.5,0.0,0624/0624_22m
