idx,SS,BW,sgi,mcs,attemp,success,tx_bytes,airtime,esttime,rssi_sum,rssi_count,LOSS,RSSI,TPT,CASE
63,1,40,0,3,17428,17428,25102600,3814572,4011362,-63122,1089,0.0,-58.0,50.1,0624/0624_16m
64,1,40,0,4,25482,25480,36702848,3737956,4010645,-89595,1592,0.0,-56.3,73.2,0624/0624_16m
65,1,40,0,5,32982,32440,46729888,3648552,4010347,-117996,2070,0.020000000000000018,-57.0,93.2,0624/0624_16m
66,1,40,0,6,27832,19402,27937144,2749456,3078434,-87843,1533,0.30000000000000004,-57.3,72.6,0624/0624_16m
71,2,40,0,1,17369,17357,24998954,3805868,4009369,-63083,1085,0.0,-58.1,49.9,0624/0624_16m
72,2,40,0,2,23222,22876,32951352,3412300,3693950,-85512,1462,0.010000000000000009,-58.5,71.4,0624/0624_16m
73,2,40,0,3,27996,27125,39072858,3102744,3424824,-99791,1771,0.030000000000000027,-56.3,91.3,0624/0624_16m
74,2,40,0,4,11352,10,13424,832764,919933,-12259,215,1.0,-57.0,0.1,0624/0624_16m
80,3,40,0,0,10721,10340,14890928,3139492,3344232,-45740,804,0.040000000000000036,-56.9,35.6,0624/0624_16m
81,3,40,0,1,21756,18410,26513708,3213736,3496786,-75620,1352,0.15000000000000002,-55.9,60.7,0624/0624_16m
82,3,40,0,2,11362,281,397234,1109384,1133874,-12969,228,0.98,-56.9,2.8,0624/0624_16m
83,3,40,0,3,12173,0,0,897456,906837,-12000,207,1.0,-58.0,0.0,0624/0624_16m
