idx,SS,BW,sgi,mcs,attemp,success,tx_bytes,airtime,esttime,rssi_sum,rssi_count,LOSS,RSSI,TPT,CASE
63,1,40,0,3,17440,17404,25068024,3817116,4009471,-65681,1087,0.0,-60.4,50.0,0624/0624_23m
64,1,40,0,4,25462,25444,36650984,3734508,4011555,-96893,1587,0.0,-61.1,73.1,0624/0624_23m
65,1,40,0,5,31396,27845,40110226,3476204,3843912,-119009,1959,0.10999999999999999,-60.7,83.5,0624/0624_23m
66,1,40,0,6,16454,3827,5491658,1618968,1758143,-35214,602,0.77,-58.5,25.0,0624/0624_23m
71,2,40,0,1,17357,17339,24973022,3803232,4008114,-66222,1085,0.0,-61.0,49.8,0624/0624_23m
72,2,40,0,2,25258,25258,36383020,3711692,4007564,-99107,1592,0.0,-62.3,72.6,0624/0624_23m
73,2,40,0,3,32657,27816,40069152,3632380,4008195,-120864,2025,0.15000000000000002,-59.7,80.0,0624/0624_23m
74,2,40,0,4,12768,0,0,938728,942338,-13440,216,1.0,-62.2,0.0,0624/0624_23m
80,3,40,0,0,12892,12121,17456642,3781736,4009575,-60282,988,0.06000000000000005,-61.0,34.8,0624/0624_23m
81,3,40,0,1,11105,1300,1830984,1645808,1779353,-27114,438,0.88,-61.9,8.2,0624/0624_23m
82,3,40,0,2,10556,0,0,1024996,1027343,-10356,174,1.0,-59.5,0.0,0624/0624_23m
83,3,40,0,3,12117,0,0,893060,902582,-12885,210,1.0,-61.4,0.0,0624/0624_23m
