idx,SS,BW,sgi,mcs,attemp,success,tx_bytes,airtime,esttime,rssi_sum,rssi_count,LOSS,RSSI,TPT,CASE
63,1,40,0,3,17446,17422,25093956,3818520,4010767,-69343,1088,0.0,-63.7,50.1,0624/0624_26m
64,1,40,0,4,24990,20239,29151294,3673588,3962233,-96241,1510,0.18999999999999995,-63.7,58.9,0624/0624_26m
65,1,40,0,5,11373,0,0,1235764,1238871,-11865,189,1.0,-62.8,0.0,0624/0624_26m
66,1,40,0,6,13224,0,0,1281320,4296287261,-13954,226,1.0,-61.7,0.0,0624/0624_26m
71,2,40,0,1,14698,14404,20746024,3219632,3405605,-56835,906,0.020000000000000018,-62.7,48.7,0624/0624_26m
72,2,40,0,2,20914,20249,29166722,3071872,3323530,-84047,1310,0.030000000000000027,-64.2,70.2,0624/0624_26m
73,2,40,0,3,10623,0,0,1158788,1166025,-11576,184,1.0,-62.9,0.0,0624/0624_26m
74,2,40,0,4,11837,0,0,873236,882058,-12723,204,1.0,-62.4,0.0,0624/0624_26m
80,3,40,0,0,12554,9241,13307522,3707652,3935913,-61503,992,0.26,-62.0,27.0,0624/0624_26m
81,3,40,0,1,16723,6806,9788908,2486552,2732012,-61063,997,0.5900000000000001,-61.2,28.7,0624/0624_26m
82,3,40,0,2,10773,0,0,1045296,1052135,-11571,189,1.0,-61.2,0.0,0624/0624_26m
83,3,40,0,3,12103,0,0,892528,900394,-12867,210,1.0,-61.3,0.0,0624/0624_26m
